.
├── Debug
│   ├── Middlewares
│   │   └── Third_Party
│   │       └── FreeRTOS
│   │           └── Source
│   │               ├── croutine.d
│   │               ├── croutine.o
│   │               ├── event_groups.d
│   │               ├── event_groups.o
│   │               ├── list.d
│   │               ├── list.o
│   │               ├── portable
│   │               │   ├── GCC
│   │               │   │   └── ARM_CM4F
│   │               │   │       ├── port.d
│   │               │   │       ├── port.o
│   │               │   │       └── subdir.mk
│   │               │   └── MemMang
│   │               │       ├── heap_3.d
│   │               │       ├── heap_3.o
│   │               │       └── subdir.mk
│   │               ├── queue.d
│   │               ├── queue.o
│   │               ├── subdir.mk
│   │               ├── tasks.d
│   │               ├── tasks.o
│   │               ├── timers.d
│   │               └── timers.o
│   ├── drivers
│   │   ├── Timer.d
│   │   ├── Timer.o
│   │   ├── _write.d
│   │   ├── _write.o
│   │   └── subdir.mk
│   ├── feabhos
│   │   └── C
│   │       └── FreeRTOS
│   │           └── src
│   │               ├── feabhOS_condition.d
│   │               ├── feabhOS_condition.o
│   │               ├── feabhOS_interrupts.d
│   │               ├── feabhOS_interrupts.o
│   │               ├── feabhOS_memory.d
│   │               ├── feabhOS_memory.o
│   │               ├── feabhOS_mutex.d
│   │               ├── feabhOS_mutex.o
│   │               ├── feabhOS_queue.d
│   │               ├── feabhOS_queue.o
│   │               ├── feabhOS_scheduler.d
│   │               ├── feabhOS_scheduler.o
│   │               ├── feabhOS_semaphore.d
│   │               ├── feabhOS_semaphore.o
│   │               ├── feabhOS_signal.d
│   │               ├── feabhOS_signal.o
│   │               ├── feabhOS_task.d
│   │               ├── feabhOS_task.o
│   │               └── subdir.mk
│   ├── makefile
│   ├── minimal.elf
│   ├── minimal.hex
│   ├── minimal.map
│   ├── objects.mk
│   ├── sources.mk
│   ├── src
│   │   ├── main.d
│   │   ├── main.o
│   │   └── subdir.mk
│   └── system
│       └── src
│           ├── cmsis
│           │   ├── subdir.mk
│           │   ├── system_stm32f4xx.d
│           │   ├── system_stm32f4xx.o
│           │   ├── vectors_stm32f4xx.d
│           │   └── vectors_stm32f4xx.o
│           ├── cortexm
│           │   ├── _initialize_hardware.d
│           │   ├── _initialize_hardware.o
│           │   ├── _reset_hardware.d
│           │   ├── _reset_hardware.o
│           │   ├── exception_handlers.d
│           │   ├── exception_handlers.o
│           │   └── subdir.mk
│           ├── diag
│           │   ├── Trace.d
│           │   ├── Trace.o
│           │   ├── subdir.mk
│           │   ├── trace_impl.d
│           │   └── trace_impl.o
│           └── newlib
│               ├── _cxx.d
│               ├── _cxx.o
│               ├── _exit.d
│               ├── _exit.o
│               ├── _sbrk.d
│               ├── _sbrk.o
│               ├── _startup.d
│               ├── _startup.o
│               ├── _syscalls.d
│               ├── _syscalls.o
│               ├── assert.d
│               ├── assert.o
│               └── subdir.mk
├── Middlewares
│   └── Third_Party
│       └── FreeRTOS
│           └── Source
│               ├── CMSIS_RTOS
│               │   ├── cmsis_os.c
│               │   └── cmsis_os.h
│               ├── croutine.c
│               ├── event_groups.c
│               ├── include
│               │   ├── FreeRTOS.h
│               │   ├── FreeRTOSConfig_template.h
│               │   ├── StackMacros.h
│               │   ├── croutine.h
│               │   ├── event_groups.h
│               │   ├── list.h
│               │   ├── mpu_wrappers.h
│               │   ├── portable.h
│               │   ├── projdefs.h
│               │   ├── queue.h
│               │   ├── semphr.h
│               │   ├── task.h
│               │   └── timers.h
│               ├── list.c
│               ├── portable
│               │   ├── GCC
│               │   │   └── ARM_CM4F
│               │   │       ├── port.c
│               │   │       └── portmacro.h
│               │   ├── IAR
│               │   │   └── ARM_CM4F
│               │   │       ├── port.c
│               │   │       ├── portasm.s
│               │   │       └── portmacro.h
│               │   └── MemMang
│               │       ├── heap_1.c
│               │       ├── heap_2.c
│               │       ├── heap_3.c
│               │       ├── heap_4.c
│               │       └── heap_5.c
│               ├── queue.c
│               ├── tasks.c
│               └── timers.c
├── README.md
├── drivers
│   ├── Timer.c
│   └── _write.c
├── feabhos
│   ├── C
│   │   ├── FreeRTOS
│   │   │   ├── inc
│   │   │   │   └── feabhOS_defs.h
│   │   │   └── src
│   │   │       ├── feabhOS_condition.c
│   │   │       ├── feabhOS_interrupts.c
│   │   │       ├── feabhOS_memory.c
│   │   │       ├── feabhOS_mutex.c
│   │   │       ├── feabhOS_queue.c
│   │   │       ├── feabhOS_scheduler.c
│   │   │       ├── feabhOS_semaphore.c
│   │   │       ├── feabhOS_signal.c
│   │   │       └── feabhOS_task.c
│   │   ├── POSIX
│   │   │   ├── inc
│   │   │   │   └── feabhOS_defs.h
│   │   │   └── src
│   │   │       ├── feabhOS_condition.c
│   │   │       ├── feabhOS_interrupts.c
│   │   │       ├── feabhOS_memory.c
│   │   │       ├── feabhOS_mutex.c
│   │   │       ├── feabhOS_queue.c
│   │   │       ├── feabhOS_scheduler.c
│   │   │       ├── feabhOS_semaphore.c
│   │   │       ├── feabhOS_signal.c
│   │   │       └── feabhOS_task.c
│   │   ├── Win32
│   │   │   ├── inc
│   │   │   │   └── feabhOS_defs.h
│   │   │   └── src
│   │   │       ├── feabhOS_condition.c
│   │   │       ├── feabhOS_memory.c
│   │   │       ├── feabhOS_mutex.c
│   │   │       ├── feabhOS_queue.c
│   │   │       ├── feabhOS_scheduler.c
│   │   │       ├── feabhOS_semaphore.c
│   │   │       ├── feabhOS_signal.c
│   │   │       └── feabhOS_task.c
│   │   └── common
│   │       └── inc
│   │           ├── feabhOS_condition.h
│   │           ├── feabhOS_errors.h
│   │           ├── feabhOS_interrupts.h
│   │           ├── feabhOS_memory.h
│   │           ├── feabhOS_mutex.h
│   │           ├── feabhOS_queue.h
│   │           ├── feabhOS_scheduler.h
│   │           ├── feabhOS_semaphore.h
│   │           ├── feabhOS_signal.h
│   │           ├── feabhOS_stdint.h
│   │           ├── feabhOS_task.h
│   │           └── feabhOS_time.h
│   ├── C++
│   │   ├── inc
│   │   │   ├── Adapters.h
│   │   │   ├── Condition.h
│   │   │   ├── MessageQueue.h
│   │   │   ├── Mutex.h
│   │   │   ├── Scheduler.h
│   │   │   ├── Signal.h
│   │   │   ├── TemplateBuffer.h
│   │   │   └── Thread.h
│   │   └── src
│   │       ├── Condition.cpp
│   │       ├── Mutex.cpp
│   │       ├── Scheduler.cpp
│   │       ├── Signal.cpp
│   │       └── Thread.cpp
│   ├── Installation\ guide.txt
│   └── README.md
├── files.txt
├── include
│   ├── FreeRTOSConfig.h
│   └── Timer.h
├── ldscripts
│   ├── libs.ld
│   ├── mem.ld
│   └── sections.ld
├── src
│   └── main.c
└── system
    ├── include
    │   ├── DEVICE
    │   │   └── README_DRIVERS.txt
    │   ├── arm
    │   │   └── semihosting.h
    │   ├── cmsis
    │   │   ├── DEVICE.h
    │   │   ├── README_CMSIS.txt
    │   │   ├── README_DEVICE.txt
    │   │   ├── arm_common_tables.h
    │   │   ├── arm_const_structs.h
    │   │   ├── arm_math.h
    │   │   ├── cmsis_device.h
    │   │   ├── core_cm0.h
    │   │   ├── core_cm0plus.h
    │   │   ├── core_cm3.h
    │   │   ├── core_cm4.h
    │   │   ├── core_cm4_simd.h
    │   │   ├── core_cmFunc.h
    │   │   ├── core_cmInstr.h
    │   │   ├── core_sc000.h
    │   │   ├── core_sc300.h
    │   │   ├── stm32f407xx.h
    │   │   ├── stm32f4xx.h
    │   │   ├── system_DEVICE.h
    │   │   └── system_stm32f4xx.h
    │   ├── cortexm
    │   │   └── ExceptionHandlers.h
    │   └── diag
    │       └── Trace.h
    └── src
        ├── DEVICE
        │   └── README_DRIVERS.txt
        ├── cmsis
        │   ├── README_DEVICE.txt
        │   ├── system_DEVICE.c
        │   ├── system_stm32f4xx.c
        │   ├── vectors_DEVICE.c
        │   └── vectors_stm32f4xx.c
        ├── cortexm
        │   ├── _initialize_hardware.c
        │   ├── _reset_hardware.c
        │   └── exception_handlers.c
        ├── diag
        │   ├── Trace.c
        │   └── trace_impl.c
        └── newlib
            ├── README.txt
            ├── _cxx.cpp
            ├── _exit.c
            ├── _sbrk.c
            ├── _startup.c
            ├── _syscalls.c
            └── assert.c

66 directories, 221 files
